{
  "modpackName": "Modpack Name",
  "modpackVer": "Version",
  "debug": true,
  "useSteamChat": true,
  "groupChatConsole": true,
  "user": "",
  "password": "",
  "secret": "",
  "botName": "Botie",
  "chatGroupId": 4333283,
  "chatRoomId": 13333196,
  "announce": false,
  "announceChatGroupId": 840131,
  "announceChatRoomId": 13119316,
  "userAdmins": [
     {
        "enabled": true,
        "nickname": "idlerus",
        "steamID3sim": "80821879",
        "steamID3": "[U:1:80821879]",
        "steamID64": "76561198041087607",
        "steamID": "STEAM_0:1:40410939"
      },
      {
        "enabled": false,
        "nickname": "meredith",
        "steamID3sim": "60082613",
        "steamID3": "[U:1:60082613]",
        "steamID64": "76561198020348341",
        "steamID": "STEAM_0:1:30041306"
      }
  ],
  "server": {
    "region": "eu",
    "authtoken": "", 
    "interpret": "java",
    "port": 25565,
    "args": ["-Xmx2048M", "-Xms2048M", "-jar", "server.jar", "nogui"]
  }
}